<?xml version='1.0' encoding='UTF-8' standalone='no'?>
<!-- Created with Fritzing (http://www.fritzing.org/) -->
<svg xmlns="http://www.w3.org/2000/svg" height="1.1in" gorn="0" width="1.3in" viewBox="0 0 33.02 27.94" id="svg2"  x="0in" version="1.2" y="0in">
    <metadata id="metadata100" >
        <rdf:RDF xmlns:rdf="http://www.w3.org/1999/02/22-rdf-syntax-ns#">
            <cc:Work xmlns:rdf="http://www.w3.org/1999/02/22-rdf-syntax-ns#" xmlns:cc="http://creativecommons.org/ns#" rdf:about="">
                <dc:format xmlns:dc="http://purl.org/dc/elements/1.1/">image/svg+xml</dc:format>
                <dc:type xmlns:rdf="http://www.w3.org/1999/02/22-rdf-syntax-ns#" rdf:resource="http://purl.org/dc/dcmitype/StillImage" xmlns:dc="http://purl.org/dc/elements/1.1/"/>
            </cc:Work>
        </rdf:RDF>
    </metadata>
    <defs id="defs98" />
    <desc id="desc4" >
        <referenceFile id="referenceFile6" >RFID_USB_Reader-v14_schematic.svg</referenceFile>
    </desc>
    <g gorn="0.3" id="schematic" >
        <rect height="17.4625" gorn="0.3.0" width="22.5425" id="rect9" class="interior rect" stroke-width="0.3175" stroke-linecap="round" fill="#FFFFFF"  stroke="#000000" x="5.23875" y="5.23875"/>
        <line gorn="0.3.1" id="connector12pin" class="pin" stroke-width="0.246944" stroke-linecap="round" y1="10.16" y2="10.16" fill="none"  x1="27.8165" x2="32.8965" stroke="#787878"/>
        <text style="font-size:1.23471999px;text-anchor:end;fill:#8c8c8c;stroke:none;font-family:Droid Sans" gorn="0.3.2" id="text12" class="text"  font-size="1.23472" x="27.322599" y="10.4069">IRQ</text>
        <rect height="0.246944" gorn="0.3.3" width="0.246944" id="connector12terminal" class="terminal" stroke-width="0" fill="none"  stroke="none" x="32.8965" y="10.0365"/>
        <line gorn="0.3.4" id="connector14pin" class="pin" stroke-width="0.246944" stroke-linecap="round" y1="12.7" y2="12.7" fill="none"  x1="27.8165" x2="32.8965" stroke="#787878"/>
        <text style="font-size:1.23471999px;text-anchor:end;fill:#8c8c8c;stroke:none;font-family:Droid Sans" gorn="0.3.5" id="text16" class="text"  font-size="1.23472" x="27.322599" y="12.9469">RST</text>
        <rect height="0.246944" gorn="0.3.6" width="0.246944" id="connector13terminal" class="terminal" stroke-width="0" fill="none"  stroke="none" x="32.8965" y="12.5765"/>
        <line gorn="0.3.7" id="connector8pin" class="pin" stroke-width="0.246944" stroke-linecap="round" y1="15.24" y2="15.24" fill="none"  x1="27.8165" x2="32.8965" stroke="#787878"/>
        <text style="font-size:1.23471999px;text-anchor:end;fill:#8c8c8c;stroke:none;font-family:Droid Sans" gorn="0.3.8" id="text20" class="text"  font-size="1.23472" x="27.322599" y="15.4869">SDA</text>
        <rect height="0.246944" gorn="0.3.9" width="0.246944" id="connector8terminal" class="terminal" stroke-width="0" fill="none"  stroke="none" x="32.8965" y="15.1165"/>
        <line gorn="0.3.10" id="connector9pin" class="pin" stroke-width="0.246944" stroke-linecap="round" y1="17.78" y2="17.78" fill="none"  x1="27.8165" x2="32.8965" stroke="#787878"/>
        <text style="font-size:1.23471999px;text-anchor:end;fill:#8c8c8c;stroke:none;font-family:Droid Sans" gorn="0.3.11" id="text24" class="text"  font-size="1.23472" x="27.322599" y="18.026899">SCK</text>
        <rect height="0.246944" gorn="0.3.12" width="0.246944" id="connector9terminal" class="terminal" stroke-width="0" fill="none"  stroke="none" x="32.8965" y="17.6565"/>
        <line gorn="0.3.13" id="connector11pin" class="pin" stroke-width="0.246944" stroke-linecap="round" y1="10.16" y2="10.16" fill="none"  x1="0.123472" x2="5.20347" stroke="#787878"/>
        <text style="font-size:1.23471999px;text-anchor:start;fill:#8c8c8c;stroke:none;font-family:Droid Sans" gorn="0.3.14" id="text28" class="text"  font-size="1.23472" x="5.69736" y="10.4069">MISO</text>
        <rect height="0.246944" gorn="0.3.15" width="0.246944" id="connector11terminal" class="terminal" stroke-width="0" fill="none"  stroke="none" x="-0.123472" y="10.0365"/>
        <line gorn="0.3.16" id="connector10pin" class="pin" stroke-width="0.246944" stroke-linecap="round" y1="12.7" y2="12.7" fill="none"  x1="0.123472" x2="5.20347" stroke="#787878"/>
        <text style="font-size:1.23471999px;text-anchor:start;fill:#8c8c8c;stroke:none;font-family:Droid Sans" gorn="0.3.17" id="text32" class="text"  font-size="1.23472" x="5.69736" y="12.9469"/>
        <text style="font-size:1.23471999px;text-anchor:start;fill:#8c8c8c;stroke:none;font-family:Droid Sans" gorn="0.3.18" id="text3077" class="text"  font-size="1.23472" x="5.69736" y="12.9469">MOSI</text>
        <rect height="0.246944" gorn="0.3.19" width="0.246944" id="connector10terminal" class="terminal" stroke-width="0" fill="none"  stroke="none" x="-0.123472" y="12.5765"/>
        <line gorn="0.3.20" id="connector13pin" class="pin" stroke-width="0.246944" stroke-linecap="round" y1="22.7365" y2="27.8165" fill="none"  x1="15.24" x2="15.24" stroke="#787878"/>
        <g transform="translate(15.4869,22.2426)" >
            <g >
                <g >
                    <g gorn="0.3.21.0.0.0" id="g36" >
                        <g gorn="0.3.21.0.0.0.0" id="g38" >
                            <g gorn="0.3.21.0.0.0.0.0" id="g40" >
                                <g gorn="0.3.21.0.0.0.0.0.0" id="g42" >
                                    <g gorn="0.3.21.0.0.0.0.0.0.0" id="g44" >
                                        <g gorn="0.3.21.0.0.0.0.0.0.0.0" id="g46" >
                                            <g transform="rotate(270)" >
                                                <g >
                                                    <g >
                                                        <g gorn="0.3.21.0.0.0.0.0.0.0.0.0.0.0.0" id="g48" >
                                                            <g gorn="0.3.21.0.0.0.0.0.0.0.0.0.0.0.0.0" id="g50" >
                                                                <g gorn="0.3.21.0.0.0.0.0.0.0.0.0.0.0.0.0.0" id="g52" >
                                                                    <g gorn="0.3.21.0.0.0.0.0.0.0.0.0.0.0.0.0.0.0" id="g54" >
                                                                        <g gorn="0.3.21.0.0.0.0.0.0.0.0.0.0.0.0.0.0.0.0" id="g56" >
                                                                            <g gorn="0.3.21.0.0.0.0.0.0.0.0.0.0.0.0.0.0.0.0.0" id="g58" >
                                                                                <text style="font-size:1.23471999px;text-anchor:start;fill:#8c8c8c;stroke:none;font-family:Droid Sans" gorn="0.3.21.0.0.0.0.0.0.0.0.0.0.0.0.0.0.0.0.0.0" id="text60" class="text"  font-size="1.23472" x="0" y="0">GND</text>
                                                                            </g>
                                                                        </g>
                                                                    </g>
                                                                </g>
                                                            </g>
                                                        </g>
                                                    </g>
                                                </g>
                                            </g>
                                        </g>
                                    </g>
                                </g>
                            </g>
                        </g>
                    </g>
                </g>
            </g>
        </g>
        <rect height="0.246944" gorn="0.3.22" width="0.246944" id="connector14terminal" class="terminal" stroke-width="0" fill="none"  stroke="none" x="15.1165" y="27.8165"/>
        <line gorn="0.3.23" id="connector15pin" class="pin" stroke-width="0.246944" stroke-linecap="round" y1="0.123472" y2="5.20347" fill="none"  x1="15.24" x2="15.24" stroke="#787878"/>
        <g transform="translate(15.4869,5.69736)" >
            <g >
                <g >
                    <g gorn="0.3.24.0.0.0" id="g64" >
                        <g gorn="0.3.24.0.0.0.0" id="g66" >
                            <g gorn="0.3.24.0.0.0.0.0" id="g68" >
                                <g gorn="0.3.24.0.0.0.0.0.0" id="g70" >
                                    <g gorn="0.3.24.0.0.0.0.0.0.0" id="g72" >
                                        <g gorn="0.3.24.0.0.0.0.0.0.0.0" id="g74" >
                                            <g transform="rotate(270)" >
                                                <g >
                                                    <g >
                                                        <g gorn="0.3.24.0.0.0.0.0.0.0.0.0.0.0.0" id="g76" >
                                                            <g gorn="0.3.24.0.0.0.0.0.0.0.0.0.0.0.0.0" id="g78" >
                                                                <g gorn="0.3.24.0.0.0.0.0.0.0.0.0.0.0.0.0.0" id="g80" >
                                                                    <g gorn="0.3.24.0.0.0.0.0.0.0.0.0.0.0.0.0.0.0" id="g82" >
                                                                        <g gorn="0.3.24.0.0.0.0.0.0.0.0.0.0.0.0.0.0.0.0" id="g84" >
                                                                            <g gorn="0.3.24.0.0.0.0.0.0.0.0.0.0.0.0.0.0.0.0.0" id="g86" >
                                                                                <text style="font-size:1.23471999px;text-anchor:end;fill:#8c8c8c;stroke:none;font-family:Droid Sans" gorn="0.3.24.0.0.0.0.0.0.0.0.0.0.0.0.0.0.0.0.0.0" id="text88" class="text"  font-size="1.23472" x="0" y="0">3.3V</text>
                                                                            </g>
                                                                        </g>
                                                                    </g>
                                                                </g>
                                                            </g>
                                                        </g>
                                                    </g>
                                                </g>
                                            </g>
                                        </g>
                                    </g>
                                </g>
                            </g>
                        </g>
                    </g>
                </g>
            </g>
        </g>
        <rect height="0.246944" gorn="0.3.25" width="0.246944" id="connector15terminal" class="terminal" stroke-width="0" fill="none"  stroke="none" x="15.1165" y="-0.123472"/>
        <text gorn="0.3.26" id="label" class="text" stroke-width="0" font-family="'Droid Sans'" fill="#000000"  font-size="1.49931" stroke="none" x="16.6687" text-anchor="middle" y="11.7298">RFID</text>
        <text gorn="0.3.27" id="text92" class="text" stroke-width="0" font-family="'Droid Sans'" fill="#000000"  font-size="1.49931" stroke="none" x="16.6687" text-anchor="middle" y="13.3291">RC522</text>
        <text gorn="0.3.28" id="text94" class="text" stroke-width="0" font-family="'Droid Sans'" fill="#000000"  font-size="1.49931" stroke="none" x="16.6687" text-anchor="middle" y="14.9284">Reader</text>
    </g>
</svg>
